<svg width="15" height="15" viewBox="0 0 15 15" fill="none" xmlns="http://www.w3.org/2000/svg">
<path d="M7.9114 6.02685L3.94523 9.78214C3.47123 10.2309 3.45058 10.9858 3.89934 11.4597C4.34811 11.9337 5.10305 11.9541 5.57705 11.5056L12.794 4.67208C13.7123 3.80261 13.7522 2.33985 12.8828 1.42149C12.0133 0.503141 10.5505 0.463259 9.63217 1.33273L1.82705 8.72297C-1.08525 11.5682 3.32581 16.2388 6.28593 13.4241L14.1271 5.99985" stroke="#464646" stroke-miterlimit="22.9256" stroke-linecap="round" stroke-linejoin="round"/>
</svg>
